Machine Learning
…
Bicicletas_summary[7:12]

## # A tibble: 1 x 6
##   diff.minimum diff.q1 diff.median diff.mean diff.q3 diff.maximum
##          <dbl>   <dbl>       <dbl>     <dbl>   <dbl>        <dbl>
## 1        86400   86400       86400     86400   86400        86400

Por el resumen, se infiere que los datos son 100% regulares ya que la mediana y las diferencias de medias son 86400 segundos o 1 día. No se necesita alguna inspección especial cuando se usa la función “tk_make_future_timeseries ()”. En caso de que los datos fueran irregulares, lo que significa que se excluyeron los fines de semana o días festivos, si se debe realizar. De lo contrario, el pronóstico sería inexacto.

fecha_futuro <- fechas %>% tk_make_future_timeseries(n_future = 180)
futuro_tab <- tibble(date = fecha_futuro) 
futuro_tab

## # A tibble: 180 x 1
##    date      
##    <date>    
##  1 2013-01-01
##  2 2013-01-02
##  3 2013-01-03
##  4 2013-01-04
##  5 2013-01-05
##  6 2013-01-06
##  7 2013-01-07
##  8 2013-01-08
##  9 2013-01-09
## 10 2013-01-10
## # ... with 170 more rows
…
